…
For a detailed explanation of all those elements, see the [reference manual](https://cran.r-project.org/web/packages/loo/loo.pdf). For our purposes, we'll focus on `pareto_k`. Here's a glimpse of what it contains for the `b1` model.

``` r
loo_b1$diagnostics$pareto_k %>% as_tibble()
```

    ## # A tibble: 100 x 1
    ##       value
    ##       <dbl>
    ##  1  0.860  
    ##  2  0.599  
    ##  3  0.0106 
    ##  4  0.0475 
    ##  5 -0.00126
    ##  6  0.0239 
    ##  7 -0.00829
    ##  8 -0.0499 
    ##  9  0.252  
    ## 10  0.0288 
    ## # ... with 90 more rows
…
